{
    "$schema": "https://themost-framework.github.io/themost/models/2018/2/schema.json",
    "@id": "http://schema.org/CopyProgramAction",
    "name": "CopyProgramAction",
    "description": "The act of organizing tasks/objects/events by associating resources to it.",
    "title": "CopyProgramAction",
    "abstract": false,
    "sealed": false,
    "inherits": "Action",
    "version": "1.0",
    "fields": [
        {
            "name": "studyProgram",
            "@id": "https://universis.io/schemas/studyProgram",
            "title": "Program of study",
            "description": "A curriculum of two or more courses that is intended or understood to lead to a degree, diploma, or certificate.",
            "type": "StudyProgram",
            "editable": false,
            "nullable": false
        },
        {
            "name": "result",
            "@id": "https://universis.io/schemas/studyProgram",
            "title": "Program of study",
            "description": "A curriculum of two or more courses that is intended or understood to lead to a degree, diploma, or certificate.",
            "type": "StudyProgram",
            "editable": false,
            "nullable": true
        }
    ],
    "privileges": [
        {
            "mask": 15,
            "type": "global"
        },
        {
            "mask": 15,
            "type": "global",
            "account": "Administrators"
        },
        {
            "mask": 15,
            "type": "self",
            "account": "Registrar",
            "filter": "studyProgram/department eq departments()"
        }
    ]
}
