{
  "$schema": "https://themost-framework.github.io/themost/models/2018/2/schema.json",
  "@id": "https://universis.io/schemas/EducationLevel",
  "name": "EducationLevel",
  "title": "Μορφωτικό επίπεδο",
  "hidden": false,
  "sealed": false,
  "abstract": false,
  "caching": "always",
  "implements": "Enumeration",
  "category": "lookup",
  "version": "1.0",
  "fields": [
    {
      "name": "id",
      "title": "Id",
      "type": "Counter",
      "nullable": false,
      "primary": true
    }
  ],
  "privileges": [
    {
      "mask": 1,
      "type": "global",
      "account": "*"
    },
    {
      "mask": 15,
      "type": "global"
    },
    {
      "mask": 15,
      "type": "global",
      "account": "Administrators"
    }
  ],
  "constraints": [
    {
      "type": "unique",
      "description": "Alternate name must be unique across different records",
      "fields": [
        "alternateName"
      ]
    },
    {
      "type": "unique",
      "description": "Name must be unique across different records",
      "fields": [
        "name"
      ]
    }
  ],
  "seed": [
    {
      "alternateName": "level0",
      "name": "Προσχολική εκπαίδευση",
      "description": "Το επίπεδο 0 αναφέρεται στην προσχολική εκπαίδευση. Περιλαμβάνει το νηπιαγωγείο[2],το προνήπιο και τον παιδικό σταθμό"
    },
    {
      "alternateName": "level1",
      "name": "Πρωτοβάθμια εκπαίδευση",
      "description": "Το επίπεδο 1 αναφέρεται στη βασική εκπαίδευση"
    },
    {
      "alternateName": "level2",
      "name": "Κατώτερη δευτεροβάθμια εκπαίδευση (Γυμνάσιο)"
    },
    {
      "alternateName": "level3",
      "name": "Ανώτερη δευτεροβάθμια εκπαίδευση (Λύκειο)"
    },
    {
      "alternateName": "level4",
      "name": "Μεταδευτεροβάθμια εκπαίδευση μη Πανεπιστημιακή",
      "description": "Αφορά το επίπεδο μετά την ολοκλήρωση της δευτεροβάθμιας εκπαίδευσης, αλλά όχι την τριτοβάθμια. π.χ.  Ινστιτούτα Επαγγελματικής Κατάρτισης (ΙΕΚ)"
    },
    {
      "alternateName": "level5",
      "name": "Πρώτο επίπεδο Πανεπιστημιακής εκπαίδευσης",
      "description": "Αφορά φοίτηση σε Α.Ε.Ι. και Α.Τ.Ε.Ι. πριν την απόκτηση πτυχίου."
    },
    {
      "alternateName": "level6",
      "name": "Πτυχίο ανώτατου εκπαιδευτικού ιδρύματος",
      "description": "Αφορά το βασικό τίτλο σπουδών σε όλα τα Α.Ε.Ι. και Α.Τ.Ε.Ι."
    },
    {
      "alternateName": "level7",
      "name": "Μεταπτυχιακό δίπλωμα ειδίκευσης",
      "description": "Μεταπτυχιακά Διπλώματα Ειδίκευσης (π.χ.Master - MS.c, Μ.Eng, M.B.A. κ.λ.π.)"
    },
    {
      "alternateName": "level8",
      "name": "Διδακτορικό δίπλωμα",
      "description": "π.χ. Διδακτορικό δίπλωμα,Ph.D (Doctor of Philosophy), κ.λ.π."
    }
  ],
  "eventListeners": [
    {
      "name": "Lookup Cache Listener",
      "type": "./listeners/lookup-cache-listener.js"
    }
  ]
}
