{
  "$schema": "https://themost-framework.github.io/themost/models/2018/2/schema.json",
  "@id": "http://schema.org/Enumeration",
  "name": "Enumeration",
  "description": "Lists or enumerations—for example, a list of cuisines or music genres, etc.",
  "title": "Enumeration",
  "abstract": false,
  "sealed": false,
  "version": "1.0",
  "implements": "Thing",
  "fields": [
    {
      "@id": "http://schema.org/identifier",
      "name": "identifier",
      "title": "identifier",
      "description": "The identifier property represents any kind of identifier for an object.",
      "type": "Integer"
    }
  ],
  "privileges": [
    {
      "mask": 15,
      "type": "global"
    },
    {
      "mask": 15,
      "type": "global",
      "account": "Administrators"
    }
  ]
}
