{
  "$schema": "https://themost-framework.github.io/themost/models/2018/2/schema.json",
  "@id": "https://universis.io/entities/Institute",
  "name": "Institute",
  "title": "Institute",
  "sealed": true,
  "caching": "conditional",
  "version": "1.2",
  "fields": [
    {
      "@id": "https://universis.io/properties/id",
      "name": "id",
      "title": "ID",
      "description": "The identifier of the item.",
      "type": "Text",
      "value": "javascript:return this.newid();",
      "readonly": true,
      "primary": true
    },
    {
      "@id": "http://schema.org/name",
      "name": "name",
      "title": "Name",
      "description": "The name of the item.",
      "type": "Text",
      "size": 150,
      "nullable": false
    },
    {
      "@id": "http://schema.org/alternateName",
      "name": "alternateName",
      "title": "Alternate Name",
      "description": "An alias for the item.",
      "type": "Text",
      "size": 30
    },
    {
      "@id": "http://schema.org/identifier",
      "name": "identifier",
      "title": "Identifier",
      "description": "The identifier property represents any kind of identifier for any kind of object.",
      "type": "Text",
      "size": 10
    },
    {
      "@id": "http://schema.org/url",
      "name": "url",
      "title": "Url",
      "description": "URL of the item.",
      "type": "URL",
      "size": 100
    },
    {
      "@id": "https://universis.io/properties/local",
      "name": "local",
      "title": "Local",
      "description": "A boolean which indicates whether this institute is the local organization or not.",
      "type": "Boolean",
      "value": "javascript:return false;",
      "calculation": "javascript:return this.convertStrictBoolean(this.target,'local');"
    },
    {
      "name": "contactPerson1",
      "title": "Όνομα υπεύθυνου 1",
      "description": "Όνομα υπεύθυνου επικοινωνίας 1",
      "type": "Text",
      "nullable": true,
      "size": 60
    },
    {
      "name": "contactPerson2",
      "title": "Όνομα υπεύθυνου 2",
      "description": "Όνομα υπεύθυνου επικοινωνίας 2",
      "type": "Text",
      "nullable": true,
      "size": 60
    },
    {
      "name": "notes",
      "title": "Σημειώσεις",
      "description": "Σημειώσεις",
      "type": "Note",
      "nullable": true,
      "many": false
    },
    {
      "@id": "https://universis.io/properties/instituteConfiguration",
      "name": "instituteConfiguration",
      "title": "instituteConfiguration",
      "type": "InstituteConfiguration",
      "expandable": true,
      "nested": true,
      "many": true,
      "mapping": {
        "parentModel": "Institute",
        "parentField": "id",
        "childModel": "InstituteConfiguration",
        "childField": "institute",
        "associationType": "association",
        "cascade": "delete"
      }
    },
    {
      "@id": "https://universis.io/properties/registrationPeriods",
      "name": "registrationPeriods",
      "title": "Registration Periods",
      "description": "Contains a collection of registration period information for tihs institute",
      "type": "RegistrationPeriodInfo",
      "many": true,
      "mapping": {
        "associationType": "junction",
        "associationAdapter": "InstituteRegistrationPeriods",
        "parentModel": "Institute",
        "parentField": "id",
        "childModel": "RegistrationPeriodInfo",
        "childField": "id",
        "associationObjectField": "institute",
        "associationValueField": "period",
        "cascade": "delete",
        "privileges": [
          {
            "mask": 1,
            "type": "global",
            "account": "*"
          },
          {
            "mask": 15,
            "type": "global",
            "account": "Administrators"
          }
        ]
      }
    },
    {
      "@id": "https://universis.io/instituteType",
      "name": "instituteType",
      "title": "Institute Type",
      "description": "A type for an education institute e.g. university, technological institute etc.",
      "type": "InstituteType"
    },
    {
      "name": "locales",
      "type": "InstituteLocale",
      "mapping": {
        "associationType": "association",
        "cascade": "delete",
        "parentModel": "Institute",
        "parentField": "id",
        "childModel": "InstituteLocale",
        "childField": "object"
      }
    },
    {
      "name": "locale",
      "type": "InstituteLocale",
      "readonly": true,
      "editable": false,
      "many": true,
      "expandable": true,
      "multiplicity": "ZeroOrOne",
      "mapping": {
        "associationType": "association",
        "cascade": "delete",
        "parentModel": "Institute",
        "parentField": "id",
        "childModel": "InstituteLocale",
        "childField": "object",
        "options": {
          "$filter": "inLanguage eq lang()",
          "$first": true
        }
      }
    }
  ],
  "privileges": [
    {
      "mask": 1,
      "type": "global",
      "account": "*"
    },
    {
      "mask": 15,
      "type": "global"
    },
    {
      "mask": 15,
      "type": "global",
      "account": "Administrators"
    }
  ],
  "eventListeners": [
    {
      "name": "Lookup Cache Listener",
      "type": "./listeners/noop-listener.js"
    },
    {
      "type": "./listeners/data-localization"
    }
  ]
}
