{
  "$schema": "https://themost-framework.github.io/themost/models/2018/2/schema.json",
  "@id": "https://universis.io/schemas/LocalSettings",
  "name": "LocalSettings",
  "title": "Local Settings",
  "hidden": false,
  "sealed": false,
  "version": "0.2",
  "source": "LocalSettingsBase",
  "view": "LocalSettingsBase",
  "fields": [
    {
      "name": "id",
      "title": "Μοναδικός κωδικός εγγραφής",
      "type": "Counter",
      "nullable": false,
      "primary": true
    },
    {
      "name": "name",
      "title": "Ονομασία ρύθμισης",
      "description": "Ονομασία ρύθμισης.",
      "type": "Text"
    },
    {
      "name": "date1",
      "title": "Ημερομηνία 1",
      "description": "Πρώτη ημερομηνία που μπορεί να χρησιμοποιείται σε μια ρύθμιση",
      "type": "DateTime"
    },
    {
      "name": "date2",
      "title": "Ημερομηνία 2",
      "description": "Δεύτερη ημερομηνία που μπορεί να χρησιμοποιείται σε μια ρύθμιση",
      "type": "DateTime"
    },
    {
      "name": "int1",
      "title": "Αριθμός 1",
      "description": "Πρώτος αριθμός που μπορεί να χρησιμοποιείται σε μια ρύθμιση",
      "type": "Integer"
    },
    {
      "name": "int2",
      "title": "Αριθμός 2",
      "description": "Δεύτερος αριθμός που μπορεί να χρησιμοποιείται σε μια ρύθμιση",
      "type": "Integer"
    },
    {
      "name": "text1",
      "title": "Κείμενο 1",
      "description": "Πρώτο κείμενο που μπορεί να χρησιμοποιείται σε μια ρύθμιση",
      "type": "Text",
      "size": 255
    },
    {
      "name": "text2",
      "title": "Κείμενο 2",
      "description": "Δεύτερο κείμενο που μπορεί να χρησιμοποιείται σε μια ρύθμιση",
      "type": "Text",
      "size": 255
    }
  ],
  "privileges": [
    {
      "mask": 1,
      "type": "global",
      "account": "*"
    },
    {
      "mask": 15,
      "type": "global"
    }
  ],
  "eventListeners": [
    {
      "name": "Lookup Cache Listener",
      "type": "./listeners/noop-listener.js"
    }
  ]
}
