{
  "$schema": "https://themost-framework.github.io/themost/models/2018/2/schema.json",
  "@id": "https://universis.io/schemas/MeanGradeRule",
  "name": "MeanGradeRule",
  "type": "memory",
  "title": "Mean grade by year rules",
  "hidden": true,
  "sealed": true,
  "version": "0.1",
  "inherits": "Rule",
  "classPath": "./rules/mean-grade-rule",
   "fields": [
    {
      "name": "id",
      "title": "Id",
      "description": "Id",
      "type": "Integer",
      "nullable": false,
      "primary": true
    }
  ],
  "privileges": [
    {
      "mask": 1,
      "type": "global",
      "account": "*"
    },
    {
      "mask": 15,
      "type": "global"
    }
  ]
}
