{
    "$schema": "https://themost-framework.github.io/themost/models/2018/2/schema.json",
    "@id": "https://universis.io/schemas/PercentileRankActionResult",
    "name": "PercentileRankActionResult",
    "title": "The result of a percentile rank calculation",
    "hidden": false,
    "version": "1.2",
    "fields": [
        {
            "@id": "https://themost.io/schemas/id",
            "name": "id",
            "title": "id",
            "description": "The identifier of the item.",
            "type": "Counter",
            "primary": true,
            "nullable": false
        },
        {
            "name": "action",
            "title": "Linked calculation action",
            "description": "The linked calculation action",
            "type": "PercentileRankAction",
            "nullable": false,
            "editable": false
        },
        {
            "name": "student",
            "title": "Student",
            "description": "The student for which the calculation happens",
            "type": "Student",
            "nullable": false,
            "editable": false
        },
        {
            "name": "course",
            "title": "Course",
            "description": "The course for which the percentile rank calculation happened",
            "type": "Course",
            "nullable": true,
            "editable": false
        },
        {
            "name": "courseExam",
            "title": "Course exam",
            "description": "The course exam for which the percentile rank calculation happened",
            "type": "CourseExam",
            "nullable": true,
            "editable": false
        },
        {
            "name": "courseClass",
            "title": "Course class",
            "description": "The course class for which the percentile rank calculation happened",
            "type": "CourseClass",
            "nullable": true,
            "editable": false
        },
        {
            "name": "updated",
            "title": "Updated",
            "description": "Indicates if the percentile rank was updated",
            "type": "Boolean",
            "nullable": false
        },
        {
            "name": "result",
            "title": "Result",
            "type": "Number",
            "nullable": true
        },
        {
            "name": "description",
            "title": "Περιγραφή",
            "type": "Note",
            "nullable": true
        },
        {
            "name": "createdBy",
            "title": "Created By",
            "description": "Created by user.",
            "type": "User",
            "value": "javascript:return this.user();",
            "readonly": true
        },
        {
            "@id": "https://themost.io/schemas/dateCreated",
            "name": "dateCreated",
            "title": "dateCreated",
            "description": "The date on which this item was created.",
            "type": "DateTime",
            "readonly": true,
            "value": "javascript:return new Date();"
        }
    ],
    "privileges": [
        {
            "mask": 15,
            "type": "global"
        },
        {
            "mask": 15,
            "type": "global",
            "account": "Administrators"
        },
        {
            "mask": 3,
            "type": "self",
            "account": "Registrar",
            "filter": "student/department eq departments() or course/department eq departments() or courseExam/course/department eq departments() or courseClass/course/department eq departments()"
        }
    ]
}
