{
  "$schema": "https://themost-framework.github.io/themost/models/2018/2/schema.json",
  "@id": "https://universis.io/schemas/StudentScholarshipValidateResult",
  "name": "StudentScholarshipValidateResult",
  "title": "Αποτέλεσμα ελέγχου υποτροφίας φοιτητή",
  "hidden": false,
  "version": "1.0",
  "fields": [
    {
      "@id": "https://themost.io/schemas/id",
      "name": "id",
      "title": "id",
      "description": "The identifier of the item.",
      "type": "Counter",
      "primary": true
    },
    {
      "name": "action",
      "title": "Validate action",
      "description": "Η ενέργεια ",
      "type": "ScholarshipValidateAction",
      "nullable": false,
      "editable": false
    },
    {
      "name": "student",
      "title": "Φοιτητής",
      "description": "Ο φοιτητής",
      "type": "Student",
      "nullable": false,
      "editable": false
    },
    {
      "name": "grade",
      "title": "Βαθμός",
      "description": "Βαθμός (0-1)",
      "type": "Number",
      "size": 4
    },
    {
      "name": "result",
      "title": "Αποτέλεσμα ελέγχου",
      "description": "Το αποτέλεσμα του ελέγχου",
      "type": "Boolean",
      "nullable": false
    }
  ],
  "privileges": [
    {
      "mask": 15,
      "type": "global",
      "account": "Administrators"
    },
    {
      "mask": 15,
      "type": "global"
    },
    {
      "mask": 15,
      "type": "self",
      "account": "Registrar",
      "filter": "student/department eq departments()"
    }
  ]
}
