{
  "$schema": "https://themost-framework.github.io/themost/models/2018/2/schema.json",
  "@id": "https://universis.io/schemas/StudentSpecialty",
  "name": "StudentSpecialty",
  "title": "Κατεύθυνση φοιτητή",
  "hidden": true,
  "sealed": true,
  "version": "0.1",
  "source": "StudentSpecialtyBase",
  "view": "StudentSpecialtyBase",
  "fields": [
    {
      "name": "id",
      "title": "Id",
      "description": "Id",
      "type": "Text",
      "nullable": false,
      "size": 22,
      "primary": true,
      "readonly": true
    },
    {
      "name": "student",
      "title": "Student",
      "description": "Student",
      "type": "Student",
      "nullable": false,
      "size": 4
    },
    {
      "name": "specialty",
      "title": "Specialty",
      "description": "Represents the specialty index associated with this class.",
      "type": "StudyProgramSpecialty",
      "expandable": true
    }
  ],
  "constraints": [
  ],
  "privileges": [
    {
      "mask": 1,
      "type": "self",
      "filter": "student eq student()",
      "account": "Students"
    },
    {
      "mask": 15,
      "type": "global"
    },
    {
      "mask": 15,
      "type": "global",
      "account": "Administrators"
    },
    {
      "mask": 15,
      "type": "self",
      "account": "Registrar",
      "filter": "student/department eq departments()"
    }
  ],
  "views": [
  ],
  "eventListeners": [
  ]
}
