{
  "$schema": "https://themost-framework.github.io/themost/models/2018/2/schema.json",
  "@id": "https://universis.io/schemas/TeachingEvent",
  "name": "TeachingEvent",
  "description": "A class teaching event",
  "title": "TeachingEvent",
  "abstract": false,
  "sealed": false,
  "inherits": "EducationEvent",
  "version": "0.2",
  "fields": [
    {
      "@id": "http://schema.org/performer",
      "name": "performer",
      "title": "performer",
      "description": "A performer at the event, for example, a presenter, musician, musical group or actor.",
      "type": "User",
      "nullable": false,
      "value": "javascript:return this.user();"
    },
    {
      "@id": "http://schema.org/description",
      "name": "description",
      "title": "description",
      "description": "A description of the item.",
      "type": "Text",
      "nullable": true
    },
    {
      "name": "courseClass",
      "title": "Διδασκαλία μαθήματος",
      "description": "Course Class - Διδασκαλία μαθήματος",
      "type": "CourseClass",
      "nullable": false,
      "editable": false
    },
    {
      "name": "sections",
      "title": "Course Class Section",
      "description": "A collection of available study programs.",
      "type": "CourseClassSection",
      "mapping": {
        "associationAdapter": "TeachingEventCourseClassSections",
        "childModel": "CourseClassSection",
        "parentField": "id",
        "parentModel": "TeachingEvent",
        "childField": "id",
        "associationType": "junction",
        "cascade": "delete"
      }
    },
    {
      "name": "presenceType",
      "title": "Presence Type",
      "description": "0 counts absences/1 counts presences",
      "type": "Integer",
      "size": 2,
      "editable": false,
      "nullable": false,
      "value": "javascript:return 0;"
    },
    {
      "name": "eventAttendanceCoefficient",
      "description": "A number which presents the coefficient of a presence that is going to be used to calculate the attendance count in a courseClass",
      "title": "Event attendance coefficient",
      "type": "Integer",
      "value": "javascript:return 1;"
    }
  ],
  "eventListeners": [
    {
      "type": "@themost/data/previous-state-listener"
    },
    {
      "type": "./listeners/before-save-teaching-events-listener.js"
    },
    {
      "type": "./listeners/after-complete-teaching-event-listener.js"
    },
    {
      "type": "./listeners/before-remove-teaching-event-listener.js"
    }
  ],
  "views": [
    {
      "name": "TeachingEventSummary",
      "description": "Teaching Event Summary View",
      "fields": [
        {
          "name": "performer",
          "mapping": {
            "options": {
              "$select": "UserInfo"
            }
          }
        },
        {
          "name": "id"
        },
        {
          "name": "startDate"
        },
        {
          "name": "endDate"
        },
        {
          "name": "name"
        },
        {
          "name": "description"
        },
        {
          "name": "location"
        },
        {
          "name": "courseClass"
        },
        {
          "name": "eventStatus"
        },
        {
          "name": "sections"
        },
        {
          "name": "eventHoursSpecification"
        }
      ]
    }
  ],
  "privileges": [
    {
      "mask": 1,
      "type": "global"
    },
    {
      "mask": 1,
      "type": "self",
      "account": "Students",
      "filter": "courseClass/students/student eq student()"
    },
    {
      "mask": 1,
      "type": "self",
      "account": "Instructors",
      "filter": "courseClass/instructors/instructor eq instructor()"
    },
    {
      "mask": 14,
      "type": "self",
      "account": "Instructors",
      "filter": "courseClass/instructors/instructor eq instructor() and performer eq me()"
    },
    {
      "mask": 15,
      "type": "global",
      "account": "Administrators"
    },
    {
      "mask": 15,
      "type": "self",
      "account": "Registrar",
      "filter": "organizer eq departments()"
    }
  ]
}
