{
  "$schema": "https://themost-framework.github.io/themost/models/2018/2/schema.json",
  "@id": "https://universis.io/schemas/TeachingEventAbsence",
  "name": "TeachingEventAbsence",
  "description": "A model to track presence count of a student in an teaching event.",
  "title": "TeachingEventAbsence",
  "inherits": "TeachingEventAttendance",
  "abstract": false,
  "sealed": false,
  "version": "0.1",
  "fields": [
    {
      "name": "type",
      "title": "Type",
      "description": "Indicates the type of the absence, eg. justified/unjustified.",
      "type": "EducationEventAbsenceType",
      "expandable": true,
      "value": "javascript:return { alternateName:'unjustified' };"
    }
  ],
  "privileges": [
    {
      "mask": 1,
      "type": "self",
      "account": "Students",
      "filter": "student eq student()"
    },
    {
      "mask": 1,
      "type": "self",
      "account": "Instructors",
      "filter": "event/courseClass/instructors/instructor eq instructor()"
    },
    {
      "mask": 10,
      "type": "self",
      "account": "Instructors",
      "filter": "event/courseClass/instructors/instructor eq instructor() and event/performer eq me()"
    },
    {
      "mask": 11,
      "type": "self",
      "account": "Registrar",
      "filter": "event/courseClass/course/department eq departments()"
    },
    {
      "mask": 15,
      "type": "global"
    },
    {
      "mask": 15,
      "type": "global",
      "account": "Administrators"
    }
  ]
}
